…
## Vitals

Let's take at all the variables associated with vitals. 

```r
dictionary %>%
  filter(Category == "vitals") %>%
  select(`Variable Name`)
```

```
## # A tibble: 52 x 1
##    `Variable Name`          
##    <chr>                    
##  1 d1_diasbp_invasive_max   
##  2 d1_diasbp_invasive_min   
##  3 d1_diasbp_max            
##  4 d1_diasbp_min            
##  5 d1_diasbp_noninvasive_max
##  6 d1_diasbp_noninvasive_min
##  7 d1_heartrate_max         
##  8 d1_heartrate_min         
##  9 d1_mbp_invasive_max      
## 10 d1_mbp_invasive_min      
## # … with 42 more rows
```
…
